# Blender v2.78 (sub 0) OBJ File: 'Shield Room.blend'
# www.blender.org
mtllib Shield Room.mtl
o Sphere_Sphere.000_meshId1_name
v 2.730909 0.192373 -8.044490
v 2.795113 2.098256 -8.078350
v 2.661235 2.098256 -7.776382
v 2.669196 0.192373 -7.694458
v 2.730909 4.004138 -8.044489
v -0.546166 4.004138 -8.622321
v -0.607888 4.004138 -8.077509
v 2.669196 4.004138 -7.694457
v -0.607888 2.145766 -8.103681
v 2.661235 2.098256 -7.776382
v 2.669196 4.004138 -7.694457
v -0.607888 4.004138 -8.077509
v -0.607888 0.192373 -8.077510
v 2.669196 0.192373 -7.694458
v 2.661235 2.098256 -7.776382
v -0.607888 2.145766 -8.103681
v -0.546166 0.192373 -8.622321
v 2.730909 0.192373 -8.044490
v 2.669196 0.192373 -7.694458
v -0.607888 0.192373 -8.077510
v 2.730909 4.004138 -8.044489
v 2.669196 4.004138 -7.694457
v -0.546166 -1.640270 -8.066402
v 2.540770 -1.640270 -7.522089
v 2.730909 0.192373 -8.044490
v -0.546166 0.192373 -8.622321
v -0.546166 -3.329246 -7.163626
v 2.232003 -3.329246 -6.673758
v 2.540770 -1.640270 -7.522089
v -0.546166 -1.640270 -8.066402
v -0.546166 9.006159 -5.948691
v 1.816478 9.006159 -5.532092
v 1.310148 10.221083 -4.140980
v -0.546166 10.221083 -4.468289
v -0.546166 -4.809649 -5.948694
v 1.816478 -4.809649 -5.532094
v 2.232003 -3.329246 -6.673758
v -0.546166 -3.329246 -7.163626
v -0.546166 7.525756 -7.163624
v 2.232003 7.525756 -6.673756
v 1.816478 9.006159 -5.532092
v -0.546166 9.006159 -5.948691
v -0.546166 -6.024581 -4.468292
v 1.310148 -6.024581 -4.140983
v 1.816478 -4.809649 -5.532094
v -0.546166 -4.809649 -5.948694
v -0.546166 5.836781 -8.066401
v 2.540770 5.836781 -7.522088
v 2.232003 7.525756 -6.673756
v -0.546166 7.525756 -7.163624
v -0.546166 4.004138 -8.622321
v 2.730909 4.004138 -8.044489
v 2.540770 5.836781 -7.522088
v -0.546166 5.836781 -8.066401
v 2.730909 4.004138 -8.044489
v 5.266185 4.004138 -6.580753
v 5.255380 5.836781 -5.954807
v 2.540770 5.836781 -7.522088
v 2.795113 2.098256 -8.078350
v 5.266185 2.098256 -6.794211
v 5.266185 4.004138 -6.580753
v 2.730909 4.004138 -8.044489
v 2.730909 0.192373 -8.044490
v 5.266185 0.192372 -6.580754
v 5.266185 2.098256 -6.794211
v 2.795113 2.098256 -8.078350
v 2.540770 -1.640270 -7.522089
v 5.255380 -1.640270 -5.954808
v 5.266185 0.192372 -6.580754
v 2.730909 0.192373 -8.044490
v 2.232003 -3.329246 -6.673758
v 4.675086 -3.329246 -5.263244
v 5.255380 -1.640270 -5.954808
v 2.540770 -1.640270 -7.522089
v 1.816478 9.006159 -5.532092
v 3.894153 9.006158 -4.332555
v 2.942569 10.221082 -3.198502
v 1.310148 10.221083 -4.140980
v 1.816478 -4.809649 -5.532094
v 3.894153 -4.809649 -4.332558
v 4.675086 -3.329246 -5.263244
v 2.232003 -3.329246 -6.673758
v 2.232003 7.525756 -6.673756
v 4.675086 7.525756 -5.263242
v 3.894153 9.006158 -4.332555
v 1.816478 9.006159 -5.532092
v 1.310148 -6.024581 -4.140983
v 2.942569 -6.024581 -3.198504
v 3.894153 -4.809649 -4.332558
v 1.816478 -4.809649 -5.532094
v 2.540770 5.836781 -7.522088
v 5.255380 5.836781 -5.954807
v 4.675086 7.525756 -5.263242
v 2.232003 7.525756 -6.673756
v 4.675086 -3.329246 -5.263244
v 5.266185 -3.329246 -4.558814
v 5.255380 -1.640270 -5.954808
v 3.894153 9.006158 -4.332555
v 5.266185 9.006158 -2.697428
v 5.266185 9.167322 -2.396554
v 4.154191 10.221082 -1.754539
v 2.942569 10.221082 -3.198502
v 3.894153 -4.809649 -4.332558
v 5.266185 -4.809649 -2.697430
v 5.266185 -3.329246 -4.558814
v 4.675086 -3.329246 -5.263244
v 4.675086 7.525756 -5.263242
v 5.266185 7.525756 -4.558812
v 5.266185 9.006158 -2.697428
v 3.894153 9.006158 -4.332555
v 2.942569 -6.024581 -3.198504
v 4.154191 -6.024582 -1.754541
v 5.266185 -4.970813 -2.396557
v 5.266185 -4.809649 -2.697430
v 3.894153 -4.809649 -4.332558
v 4.154191 -6.024582 -1.754541
v 4.798883 -6.024582 0.016731
v 5.266185 -5.635160 -0.065663
v 5.266185 -4.970813 -2.396557
v 4.798883 -6.024582 0.016731
v 4.798883 -6.024583 1.901684
v 5.266185 -5.635161 1.984082
v 5.266185 -5.635160 -0.065663
v 4.798883 -6.024583 1.901684
v 4.154191 -6.024583 3.672960
v 5.266185 -4.970814 4.314965
v 5.266185 -5.635161 1.984082
v 4.154191 -6.024583 3.672960
v 2.942569 -6.024583 5.116923
v 3.894153 -4.809650 6.250967
v 5.266185 -4.809650 4.615839
v 5.266185 -4.970814 4.314965
v 4.675097 -3.329248 7.181664
v 2.232013 -3.329249 8.592177
v 2.540780 -1.640273 9.440510
v 5.255390 -1.640273 7.873230
v 3.894153 9.006157 6.250969
v 1.816478 9.006157 7.450516
v 1.310148 10.221080 6.059394
v 2.942569 10.221080 5.116926
v 3.894153 -4.809650 6.250967
v 1.816478 -4.809651 7.450514
v 2.232013 -3.329249 8.592177
v 4.675097 -3.329248 7.181664
v 4.675097 7.525754 7.181666
v 2.232013 7.525754 8.592179
v 1.816478 9.006157 7.450516
v 3.894153 9.006157 6.250969
v 2.942569 -6.024583 5.116923
v 1.310148 -6.024583 6.059391
v 1.816478 -4.809651 7.450514
v 3.894153 -4.809650 6.250967
v 5.255380 5.836778 7.873230
v 2.540780 5.836778 9.440512
v 2.232013 7.525754 8.592179
v 4.675097 7.525754 7.181666
v 1.816478 -4.809651 7.450514
v -0.546166 -4.809651 7.867114
v -0.546166 -3.329249 9.082047
v 2.232013 -3.329249 8.592177
v 2.232013 7.525754 8.592179
v -0.546166 7.525753 9.082047
v -0.546166 9.006157 7.867116
v 1.816478 9.006157 7.450516
v 1.310148 -6.024583 6.059391
v -0.546166 -6.024583 6.386711
v -0.546166 -4.809651 7.867114
v 1.816478 -4.809651 7.450514
v 2.540780 5.836778 9.440512
v -0.546166 5.836778 9.984824
v -0.546166 7.525753 9.082047
v 2.232013 7.525754 8.592179
v 2.730909 4.004135 9.962912
v -0.546166 4.004135 10.540744
v -0.546166 5.836778 9.984824
v 2.540780 5.836778 9.440512
v 2.795113 2.098253 10.139304
v -0.546166 2.098253 10.728458
v -0.546166 4.004135 10.540744
v 2.730909 4.004135 9.962912
v 2.730909 0.192370 9.962911
v -0.546166 0.192370 10.540743
v -0.546166 2.098253 10.728458
v 2.795113 2.098253 10.139304
v 2.540780 -1.640273 9.440510
v -0.546166 -1.640273 9.984823
v -0.546166 0.192370 10.540743
v 2.730909 0.192370 9.962911
v 2.232013 -3.329249 8.592177
v -0.546166 -3.329249 9.082047
v -0.546166 -1.640273 9.984823
v 2.540780 -1.640273 9.440510
v 1.816478 9.006157 7.450516
v -0.546166 9.006157 7.867116
v -0.546166 10.221080 6.386714
v 1.310148 10.221080 6.059394
v -0.546166 0.192370 10.540743
v -3.823240 0.192370 9.962911
v -3.887444 2.098253 10.139304
v -0.546166 2.098253 10.728458
v -0.546166 -1.640273 9.984823
v -3.633101 -1.640273 9.440510
v -3.823240 0.192370 9.962911
v -0.546166 0.192370 10.540743
v -0.546166 -3.329249 9.082047
v -3.324338 -3.329249 8.592177
v -3.633101 -1.640273 9.440510
v -0.546166 -1.640273 9.984823
v -0.546166 9.006157 7.867116
v -2.908807 9.006157 7.450516
v -2.402482 10.221080 6.059394
v -0.546166 10.221080 6.386714
v -0.546166 -4.809651 7.867114
v -2.908807 -4.809651 7.450514
v -3.324338 -3.329249 8.592177
v -0.546166 -3.329249 9.082047
v -0.546166 7.525753 9.082047
v -3.324338 7.525754 8.592179
v -2.908807 9.006157 7.450516
v -0.546166 9.006157 7.867116
v -0.546166 -6.024583 6.386711
v -2.402482 -6.024583 6.059391
v -2.908807 -4.809651 7.450514
v -0.546166 -4.809651 7.867114
v -0.546166 5.836778 9.984824
v -3.633101 5.836778 9.440512
v -3.324338 7.525754 8.592179
v -0.546166 7.525753 9.082047
v -0.546166 4.004135 10.540744
v -3.823240 4.004135 9.962912
v -3.633101 5.836778 9.440512
v -0.546166 5.836778 9.984824
v -0.546166 2.098253 10.728458
v -3.887444 2.098253 10.139304
v -3.823240 4.004135 9.962912
v -0.546166 4.004135 10.540744
v -2.402482 -6.024583 6.059391
v -4.034901 -6.024583 5.116913
v -4.986475 -4.809650 6.250967
v -2.908807 -4.809651 7.450514
v -3.633101 5.836778 9.440512
v -6.347712 5.836778 7.873230
v -5.767418 7.525754 7.181666
v -3.324338 7.525754 8.592179
v -3.823240 4.004135 9.962912
v -6.705061 4.004135 8.299091
v -6.347712 5.836778 7.873230
v -3.633101 5.836778 9.440512
v -3.887444 2.098253 10.139304
v -6.825711 2.098253 8.442885
v -6.705061 4.004135 8.299091
v -3.823240 4.004135 9.962912
v -3.823240 0.192370 9.962911
v -6.705061 0.192370 8.299091
v -6.825711 2.098253 8.442885
v -3.887444 2.098253 10.139304
v -3.633101 -1.640273 9.440510
v -6.347712 -1.640273 7.873230
v -6.705061 0.192370 8.299091
v -3.823240 0.192370 9.962911
v -3.324338 -3.329249 8.592177
v -5.767418 -3.329248 7.181664
v -6.347712 -1.640273 7.873230
v -3.633101 -1.640273 9.440510
v -2.908807 9.006157 7.450516
v -4.986475 9.006157 6.250969
v -4.034901 10.221080 5.116926
v -2.402482 10.221080 6.059394
v -2.908807 -4.809651 7.450514
v -4.986475 -4.809650 6.250967
v -5.767418 -3.329248 7.181664
v -3.324338 -3.329249 8.592177
v -3.324338 7.525754 8.592179
v -5.767418 7.525754 7.181666
v -4.986475 9.006157 6.250969
v -2.908807 9.006157 7.450516
v -6.347712 -1.640273 7.873230
v -8.362570 -1.640272 5.472017
v -8.844018 0.192370 5.749981
v -6.705061 0.192370 8.299091
v -5.767418 -3.329248 7.181664
v -7.580748 -3.329248 5.020628
v -8.362570 -1.640272 5.472017
v -6.347712 -1.640273 7.873230
v -4.986475 9.006157 6.250969
v -6.528579 9.006157 4.413158
v -5.246522 10.221080 3.672963
v -4.034901 10.221080 5.116926
v -4.986475 -4.809650 6.250967
v -6.528579 -4.809650 4.413157
v -7.580748 -3.329248 5.020628
v -5.767418 -3.329248 7.181664
v -5.767418 7.525754 7.181666
v -7.580748 7.525754 5.020630
v -6.528579 9.006157 4.413158
v -4.986475 9.006157 6.250969
v -4.034901 -6.024583 5.116913
v -5.246522 -6.024583 3.672960
v -6.528579 -4.809650 4.413157
v -4.986475 -4.809650 6.250967
v -6.347712 5.836778 7.873230
v -8.362570 5.836778 5.472018
v -7.580748 7.525754 5.020630
v -5.767418 7.525754 7.181666
v -6.705061 4.004135 8.299091
v -8.844018 4.004136 5.749982
v -8.362570 5.836778 5.472018
v -6.347712 5.836778 7.873230
v -6.825711 2.098253 8.442885
v -9.006578 2.098254 5.843835
v -8.844018 4.004136 5.749982
v -6.705061 4.004135 8.299091
v -6.705061 0.192370 8.299091
v -8.844018 0.192370 5.749981
v -9.006578 2.098254 5.843835
v -6.825711 2.098253 8.442885
v -8.362570 5.836778 5.472018
v -9.434657 5.836779 2.526492
v -8.545597 7.525754 2.369725
v -7.580748 7.525754 5.020630
v -8.844018 4.004136 5.749982
v -9.982137 4.004136 2.623031
v -9.434657 5.836779 2.526492
v -8.362570 5.836778 5.472018
v -9.006578 2.098254 5.843835
v -10.166999 2.098254 2.655621
v -9.982137 4.004136 2.623031
v -8.844018 4.004136 5.749982
v -8.844018 0.192370 5.749981
v -9.982137 0.192371 2.623031
v -10.166999 2.098254 2.655621
v -9.006578 2.098254 5.843835
v -8.362570 -1.640272 5.472017
v -9.434657 -1.640272 2.526490
v -9.982137 0.192371 2.623031
v -8.844018 0.192370 5.749981
v -7.580748 -3.329248 5.020628
v -8.545597 -3.329247 2.369723
v -9.434657 -1.640272 2.526490
v -8.362570 -1.640272 5.472017
v -6.528579 9.006157 4.413158
v -7.349118 9.006157 2.158758
v -5.891214 10.221082 1.901687
v -5.246522 10.221080 3.672963
v -6.528579 -4.809650 4.413157
v -7.349118 -4.809650 2.158756
v -8.545597 -3.329247 2.369723
v -7.580748 -3.329248 5.020628
v -7.580748 7.525754 5.020630
v -8.545597 7.525754 2.369725
v -7.349118 9.006157 2.158758
v -6.528579 9.006157 4.413158
v -5.246522 -6.024583 3.672960
v -5.891214 -6.024583 1.901686
v -7.349118 -4.809650 2.158756
v -6.528579 -4.809650 4.413157
v -9.434657 -1.640272 2.526490
v -9.434657 -1.640271 -0.608070
v -9.982137 0.192372 -0.704600
v -9.982137 0.192371 2.623031
v -8.545597 -3.329247 2.369723
v -8.545597 -3.329247 -0.451304
v -9.434657 -1.640271 -0.608070
v -9.434657 -1.640272 2.526490
v -7.349118 9.006157 2.158758
v -7.349118 9.006158 -0.240335
v -5.891214 10.221082 0.016734
v -5.891214 10.221082 1.901687
v -7.349118 -4.809650 2.158756
v -7.349118 -4.809650 -0.240337
v -8.545597 -3.329247 -0.451304
v -8.545597 -3.329247 2.369723
v -8.545597 7.525754 2.369725
v -8.545597 7.525755 -0.451302
v -7.349118 9.006158 -0.240335
v -7.349118 9.006157 2.158758
v -5.891214 -6.024583 1.901686
v -5.891214 -6.024582 0.016733
v -7.349118 -4.809650 -0.240337
v -7.349118 -4.809650 2.158756
v -9.434657 5.836779 2.526492
v -9.434657 5.836780 -0.608069
v -8.545597 7.525755 -0.451302
v -8.545597 7.525754 2.369725
v -9.982137 4.004136 2.623031
v -9.982137 4.004137 -0.704599
v -9.434657 5.836780 -0.608069
v -9.434657 5.836779 2.526492
v -10.166999 2.098254 2.655621
v -10.166999 2.098255 -0.737200
v -9.982137 4.004137 -0.704599
v -9.982137 4.004136 2.623031
v -9.982137 0.192371 2.623031
v -9.982137 0.192372 -0.704600
v -10.166999 2.098255 -0.737200
v -10.166999 2.098254 2.655621
v -9.982137 4.004137 -0.704599
v -8.844018 4.004137 -3.831560
v -8.362570 5.836780 -3.553595
v -9.434657 5.836780 -0.608069
v -10.166999 2.098255 -0.737200
v -9.006578 2.098255 -3.925413
v -8.844018 4.004137 -3.831560
v -9.982137 4.004137 -0.704599
v -9.982137 0.192372 -0.704600
v -8.844018 0.192372 -3.831561
v -9.006578 2.098255 -3.925413
v -10.166999 2.098255 -0.737200
v -9.434657 -1.640271 -0.608070
v -8.362570 -1.640271 -3.553596
v -8.844018 0.192372 -3.831561
v -9.982137 0.192372 -0.704600
v -8.545597 -3.329247 -0.451304
v -7.580748 -3.329247 -3.102209
v -8.362570 -1.640271 -3.553596
v -9.434657 -1.640271 -0.608070
v -7.349118 9.006158 -0.240335
v -6.528579 9.006158 -2.494735
v -5.246522 10.221082 -1.754539
v -5.891214 10.221082 0.016734
v -7.349118 -4.809650 -0.240337
v -6.528579 -4.809649 -2.494738
v -7.580748 -3.329247 -3.102209
v -8.545597 -3.329247 -0.451304
v -8.545597 7.525755 -0.451302
v -7.580748 7.525756 -3.102207
v -6.528579 9.006158 -2.494735
v -7.349118 9.006158 -0.240335
v -5.891214 -6.024582 0.016733
v -5.246522 -6.024582 -1.754541
v -6.528579 -4.809649 -2.494738
v -7.349118 -4.809650 -0.240337
v -9.434657 5.836780 -0.608069
v -8.362570 5.836780 -3.553595
v -7.580748 7.525756 -3.102207
v -8.545597 7.525755 -0.451302
v -7.580748 -3.329247 -3.102209
v -5.767428 -3.329246 -5.263244
v -6.347722 -1.640270 -5.954808
v -8.362570 -1.640271 -3.553596
v -6.528579 9.006158 -2.494735
v -4.986485 9.006158 -4.332545
v -4.034901 10.221082 -3.198502
v -5.246522 10.221082 -1.754539
v -6.528579 -4.809649 -2.494738
v -4.986485 -4.809649 -4.332548
v -5.767428 -3.329246 -5.263244
v -7.580748 -3.329247 -3.102209
v -7.580748 7.525756 -3.102207
v -5.767428 7.525756 -5.263242
v -4.986485 9.006158 -4.332545
v -6.528579 9.006158 -2.494735
v -5.246522 -6.024582 -1.754541
v -4.034901 -6.024581 -3.198504
v -4.986485 -4.809649 -4.332548
v -6.528579 -4.809649 -2.494738
v -8.362570 5.836780 -3.553595
v -6.347722 5.836781 -5.954807
v -5.767428 7.525756 -5.263242
v -7.580748 7.525756 -3.102207
v -8.844018 4.004137 -3.831560
v -6.705061 4.004138 -6.380669
v -6.347722 5.836781 -5.954807
v -8.362570 5.836780 -3.553595
v -9.006578 2.098255 -3.925413
v -6.825721 2.098256 -6.524463
v -6.705061 4.004138 -6.380669
v -8.844018 4.004137 -3.831560
v -8.844018 0.192372 -3.831561
v -6.705061 0.192372 -6.380670
v -6.825721 2.098256 -6.524463
v -9.006578 2.098255 -3.925413
v -8.362570 -1.640271 -3.553596
v -6.347722 -1.640270 -5.954808
v -6.705061 0.192372 -6.380670
v -8.844018 0.192372 -3.831561
v -6.705061 4.004138 -6.380669
v -3.823240 4.004138 -8.044489
v -3.633111 5.836781 -7.522088
v -6.347722 5.836781 -5.954807
v -6.825721 2.098256 -6.524463
v -3.887444 2.098256 -8.220873
v -3.823240 4.004138 -8.044489
v -6.705061 4.004138 -6.380669
v -6.705061 0.192372 -6.380670
v -3.823240 0.192373 -8.044490
v -3.887444 2.098256 -8.220873
v -6.825721 2.098256 -6.524463
v -6.347722 -1.640270 -5.954808
v -3.633111 -1.640270 -7.522089
v -3.823240 0.192373 -8.044490
v -6.705061 0.192372 -6.380670
v -5.767428 -3.329246 -5.263244
v -3.324341 -3.329246 -6.673758
v -3.633111 -1.640270 -7.522089
v -6.347722 -1.640270 -5.954808
v -4.986485 9.006158 -4.332545
v -2.908810 9.006159 -5.532092
v -2.402484 10.221083 -4.140980
v -4.034901 10.221082 -3.198502
v -4.986485 -4.809649 -4.332548
v -2.908810 -4.809649 -5.532094
v -3.324341 -3.329246 -6.673758
v -5.767428 -3.329246 -5.263244
v -5.767428 7.525756 -5.263242
v -3.324341 7.525756 -6.673756
v -2.908810 9.006159 -5.532092
v -4.986485 9.006158 -4.332545
v -4.034901 -6.024581 -3.198504
v -2.402484 -6.024581 -4.140973
v -2.908810 -4.809649 -5.532094
v -4.986485 -4.809649 -4.332548
v -6.347722 5.836781 -5.954807
v -3.633111 5.836781 -7.522088
v -3.324341 7.525756 -6.673756
v -5.767428 7.525756 -5.263242
v -3.324341 -3.329246 -6.673758
v -0.546166 -3.329246 -7.163626
v -0.546166 -1.640270 -8.066402
v -3.633111 -1.640270 -7.522089
v -2.908810 9.006159 -5.532092
v -0.546166 9.006159 -5.948691
v -0.546166 10.221083 -4.468289
v -2.402484 10.221083 -4.140980
v -2.908810 -4.809649 -5.532094
v -0.546166 -4.809649 -5.948694
v -0.546166 -3.329246 -7.163626
v -3.324341 -3.329246 -6.673758
v -3.324341 7.525756 -6.673756
v -0.546166 7.525756 -7.163624
v -0.546166 9.006159 -5.948691
v -2.908810 9.006159 -5.532092
v -2.402484 -6.024581 -4.140973
v -0.546166 -6.024581 -4.468292
v -0.546166 -4.809649 -5.948694
v -2.908810 -4.809649 -5.532094
v -3.633111 5.836781 -7.522088
v -0.546166 5.836781 -8.066401
v -0.546166 7.525756 -7.163624
v -3.324341 7.525756 -6.673756
v -3.823240 4.004138 -8.044489
v -0.546166 4.004138 -8.622321
v -0.546166 5.836781 -8.066401
v -3.633111 5.836781 -7.522088
v -3.887444 2.098256 -8.220873
v -0.546166 2.098256 -8.810037
v -0.546166 4.004138 -8.622321
v -3.823240 4.004138 -8.044489
v -3.823240 0.192373 -8.044490
v -0.546166 0.192373 -8.622321
v -0.546166 2.098256 -8.810037
v -3.887444 2.098256 -8.220873
v -3.633111 -1.640270 -7.522089
v -0.546166 -1.640270 -8.066402
v -0.546166 0.192373 -8.622321
v -3.823240 0.192373 -8.044490
v 5.255380 5.836778 7.873230
v 5.266185 4.004135 8.499166
v 2.730909 4.004135 9.962912
v 2.540780 5.836778 9.440512
v 5.266185 9.831669 -0.065660
v 5.266185 9.831669 1.984084
v 4.798883 10.221082 1.901687
v 4.798883 10.221082 0.016734
v 5.266185 9.831669 1.984084
v 5.266185 9.167320 4.314968
v 4.154191 10.221080 3.672963
v 4.798883 10.221082 1.901687
v 5.266185 9.167322 -2.396554
v 5.266185 9.831669 -0.065660
v 4.798883 10.221082 0.016734
v 4.154191 10.221082 -1.754539
v 5.266185 4.004135 8.499166
v 5.266185 2.098253 8.712633
v 2.795113 2.098253 10.139304
v 2.730909 4.004135 9.962912
v 5.266185 7.525754 6.477225
v 5.255380 5.836778 7.873230
v 4.675097 7.525754 7.181666
v 5.266185 7.525756 -4.558812
v 4.675086 7.525756 -5.263242
v 5.255380 5.836781 -5.954807
v 5.255390 -1.640273 7.873230
v 5.266185 -3.329248 6.477223
v 4.675097 -3.329248 7.181664
v 5.266185 0.192370 8.499165
v 5.255390 -1.640273 7.873230
v 2.540780 -1.640273 9.440510
v 2.730909 0.192370 9.962911
v 5.266185 9.006157 4.615841
v 5.266185 7.525754 6.477225
v 4.675097 7.525754 7.181666
v 3.894153 9.006157 6.250969
v 5.266185 -3.329248 6.477223
v 5.266185 -4.809650 4.615839
v 3.894153 -4.809650 6.250967
v 4.675097 -3.329248 7.181664
v 5.266185 2.098253 8.712633
v 5.266185 0.192370 8.499165
v 2.730909 0.192370 9.962911
v 2.795113 2.098253 10.139304
v 5.266185 9.167320 4.314968
v 5.266185 9.006157 4.615841
v 3.894153 9.006157 6.250969
v 2.942569 10.221080 5.116926
v 4.154191 10.221080 3.672963
v -0.546166 0.192373 -8.622321
v -0.607888 0.192373 -8.077510
v -0.607888 2.145766 -8.103681
v -0.546166 2.098256 -8.810037
v -0.607888 4.004138 -8.077509
v -0.546166 4.004138 -8.622321
vt 0.5430 0.6182
vt 0.5433 0.5660
vt 0.6356 0.5655
vt 0.6356 0.6190
vt 0.1221 0.4847
vt 0.1221 0.4298
vt 0.2148 0.4297
vt 0.2144 0.4832
vt 0.0252 0.4180
vt 0.0098 0.4192
vt 0.0081 0.3258
vt 0.0181 0.3256
vt 0.0181 0.3256
vt 0.0081 0.3258
vt 0.0056 0.2723
vt 0.0149 0.2721
vt 0.0162 0.2186
vt 0.0063 0.2187
vt 0.0048 0.1253
vt 0.0202 0.1260
vt 0.0063 0.2187
vt 0.0162 0.2186
vt 0.0000 0.0000
vt 0.0000 0.0000
vt 0.0000 0.0000
vt 0.0000 0.0000
vt 0.0000 0.0000
vt 0.0000 0.0000
vt 0.0000 0.0000
vt 0.0000 0.0000
vt 0.0000 0.0000
vt 0.0000 0.0000
vt 0.0000 0.0000
vt 0.0000 0.0000
vt 0.0000 0.0000
vt 0.0000 0.0000
vt 0.0000 0.0000
vt 0.0000 0.0000
vt 0.0000 0.0000
vt 0.0000 0.0000
vt 0.0000 0.0000
vt 0.0000 0.0000
vt 0.0000 0.0000
vt 0.0000 0.0000
vt 0.0000 0.0000
vt 0.0000 0.0000
vt 0.0000 0.0000
vt 0.0000 0.0000
vt 0.0000 0.0000
vt 0.0000 0.0000
vt 0.0000 0.0000
vt 0.0000 0.0000
vt 0.0000 0.0000
vt 0.0000 0.0000
vt 0.0000 0.0000
vt 0.0000 0.0000
vt 0.0000 0.0000
vt 0.0000 0.0000
vt 0.0000 0.0000
vt 0.0000 0.0000
vt 0.0000 0.0000
vt 0.0000 0.0000
vt 0.0000 0.0000
vt 0.0000 0.0000
vt 0.0000 0.0000
vt 0.0000 0.0000
vt 0.0000 0.0000
vt 0.0000 0.0000
vt 0.0000 0.0000
vt 0.0000 0.0000
vt 0.0000 0.0000
vt 0.0000 0.0000
vt 0.0000 0.0000
vt 0.0000 0.0000
vt 0.0000 0.0000
vt 0.0000 0.0000
vt 0.0000 0.0000
vt 0.0000 0.0000
vt 0.0000 0.0000
vt 0.0000 0.0000
vt 0.0000 0.0000
vt 0.0000 0.0000
vt 0.0000 0.0000
vt 0.0000 0.0000
vt 0.0000 0.0000
vt 0.0000 0.0000
vt 0.0000 0.0000
vt 0.0000 0.0000
vt 0.0000 0.0000
vt 0.0000 0.0000
vt 0.0000 0.0000
vt 0.0000 0.0000
vt 0.0000 0.0000
vt 0.0000 0.0000
vt 0.0000 0.0000
vt 0.0000 0.0000
vt 0.0000 0.0000
vt 0.0000 0.0000
vt 0.0000 0.0000
vt 0.0000 0.0000
vt 0.0000 0.0000
vt 0.0000 0.0000
vt 0.0000 0.0000
vt 0.0000 0.0000
vt 0.0000 0.0000
vt 0.0000 0.0000
vt 0.0000 0.0000
vt 0.0000 0.0000
vt 0.0000 0.0000
vt 0.0000 0.0000
vt 0.0000 0.0000
vt 0.0000 0.0000
vt 0.0000 0.0000
vt 0.0000 0.0000
vt 0.0000 0.0000
vt 0.0000 0.0000
vt 0.0000 0.0000
vt 0.0000 0.0000
vt 0.0000 0.0000
vt 0.0000 0.0000
vt 0.0000 0.0000
vt 0.0000 0.0000
vt 0.0000 0.0000
vt 0.0000 0.0000
vt 0.0000 0.0000
vt 0.0000 0.0000
vt 0.0000 0.0000
vt 0.0000 0.0000
vt 0.0000 0.0000
vt 0.0000 0.0000
vt 0.0000 0.0000
vt 0.0000 0.0000
vt 0.0000 0.0000
vt 0.0000 0.0000
vt 0.0000 0.0000
vt 0.0000 0.0000
vt 0.0000 0.0000
vt 0.0000 0.0000
vt 0.0000 0.0000
vt 0.0000 0.0000
vt 0.0000 0.0000
vt 0.0000 0.0000
vt 0.0000 0.0000
vt 0.0000 0.0000
vt 0.0000 0.0000
vt 0.0000 0.0000
vt 0.0000 0.0000
vt 0.0000 0.0000
vt 0.0000 0.0000
vt 0.0000 0.0000
vt 0.0000 0.0000
vt 0.0000 0.0000
vt 0.0000 0.0000
vt 0.0000 0.0000
vt 0.0000 0.0000
vt 0.0000 0.0000
vt 0.0000 0.0000
vt 0.0000 0.0000
vt 0.0000 0.0000
vt 0.0000 0.0000
vt 0.0000 0.0000
vt 0.0000 0.0000
vt 0.0000 0.0000
vt 0.0000 0.0000
vt 0.0000 0.0000
vt 0.0000 0.0000
vt 0.0000 0.0000
vt 0.0000 0.0000
vt 0.0000 0.0000
vt 0.0000 0.0000
vt 0.0000 0.0000
vt 0.0000 0.0000
vt 0.0000 0.0000
vt 0.0000 0.0000
vt 0.0000 0.0000
vt 0.0000 0.0000
vt 0.0000 0.0000
vt 0.0000 0.0000
vt 0.0000 0.0000
vt 0.0000 0.0000
vt 0.0000 0.0000
vt 0.0000 0.0000
vt 0.0000 0.0000
vt 0.0000 0.0000
vt 0.0000 0.0000
vt 0.0000 0.0000
vt 0.0000 0.0000
vt 0.0000 0.0000
vt 0.0000 0.0000
vt 0.0000 0.0000
vt 0.0000 0.0000
vt 0.0000 0.0000
vt 0.0000 0.0000
vt 0.0000 0.0000
vt 0.0000 0.0000
vt 0.0000 0.0000
vt 0.0000 0.0000
vt 0.0000 0.0000
vt 0.0000 0.0000
vt 0.0000 0.0000
vt 0.0000 0.0000
vt 0.0000 0.0000
vt 0.0000 0.0000
vt 0.0000 0.0000
vt 0.0000 0.0000
vt 0.0000 0.0000
vt 0.0000 0.0000
vt 0.0000 0.0000
vt 0.0000 0.0000
vt 0.0000 0.0000
vt 0.0000 0.0000
vt 0.0000 0.0000
vt 0.0000 0.0000
vt 0.0000 0.0000
vt 0.0000 0.0000
vt 0.0000 0.0000
vt 0.0000 0.0000
vt 0.0000 0.0000
vt 0.0000 0.0000
vt 0.0000 0.0000
vt 0.0000 0.0000
vt 0.0000 0.0000
vt 0.0000 0.0000
vt 0.0000 0.0000
vt 0.0000 0.0000
vt 0.0000 0.0000
vt 0.0000 0.0000
vt 0.0000 0.0000
vt 0.0000 0.0000
vt 0.0000 0.0000
vt 0.0000 0.0000
vt 0.0000 0.0000
vt 0.0000 0.0000
vt 0.0000 0.0000
vt 0.0000 0.0000
vt 0.0000 0.0000
vt 0.0000 0.0000
vt 0.0000 0.0000
vt 0.0000 0.0000
vt 0.0000 0.0000
vt 0.0000 0.0000
vt 0.0000 0.0000
vt 0.0000 0.0000
vt 0.0000 0.0000
vt 0.0000 0.0000
vt 0.0000 0.0000
vt 0.0000 0.0000
vt 0.0000 0.0000
vt 0.0000 0.0000
vt 0.0000 0.0000
vt 0.0000 0.0000
vt 0.0000 0.0000
vt 0.0000 0.0000
vt 0.0000 0.0000
vt 0.0000 0.0000
vt 0.0000 0.0000
vt 0.0000 0.0000
vt 0.0000 0.0000
vt 0.0000 0.0000
vt 0.0000 0.0000
vt 0.0000 0.0000
vt 0.0000 0.0000
vt 0.0000 0.0000
vt 0.0000 0.0000
vt 0.0000 0.0000
vt 0.0000 0.0000
vt 0.0000 0.0000
vt 0.0000 0.0000
vt 0.0000 0.0000
vt 0.0000 0.0000
vt 0.0000 0.0000
vt 0.0000 0.0000
vt 0.0000 0.0000
vt 0.0000 0.0000
vt 0.0000 0.0000
vt 0.0000 0.0000
vt 0.0000 0.0000
vt 0.0000 0.0000
vt 0.0000 0.0000
vt 0.0000 0.0000
vt 0.0000 0.0000
vt 0.0000 0.0000
vt 0.0000 0.0000
vt 0.0000 0.0000
vt 0.0000 0.0000
vt 0.0000 0.0000
vt 0.0000 0.0000
vt 0.0000 0.0000
vt 0.0000 0.0000
vt 0.0000 0.0000
vt 0.0000 0.0000
vt 0.0000 0.0000
vt 0.0000 0.0000
vt 0.0000 0.0000
vt 0.0000 0.0000
vt 0.0000 0.0000
vt 0.0000 0.0000
vt 0.0000 0.0000
vt 0.0000 0.0000
vt 0.0000 0.0000
vt 0.0000 0.0000
vt 0.0000 0.0000
vt 0.0000 0.0000
vt 0.0000 0.0000
vt 0.0000 0.0000
vt 0.0000 0.0000
vt 0.0000 0.0000
vt 0.0000 0.0000
vt 0.0000 0.0000
vt 0.0000 0.0000
vt 0.0000 0.0000
vt 0.0000 0.0000
vt 0.0000 0.0000
vt 0.0000 0.0000
vt 0.0000 0.0000
vt 0.0000 0.0000
vt 0.0000 0.0000
vt 0.0000 0.0000
vt 0.0000 0.0000
vt 0.0000 0.0000
vt 0.0000 0.0000
vt 0.0000 0.0000
vt 0.0000 0.0000
vt 0.0000 0.0000
vt 0.0000 0.0000
vt 0.0000 0.0000
vt 0.0000 0.0000
vt 0.0000 0.0000
vt 0.0000 0.0000
vt 0.0000 0.0000
vt 0.0000 0.0000
vt 0.0000 0.0000
vt 0.0000 0.0000
vt 0.0000 0.0000
vt 0.0000 0.0000
vt 0.0000 0.0000
vt 0.0000 0.0000
vt 0.0000 0.0000
vt 0.0000 0.0000
vt 0.0000 0.0000
vt 0.0000 0.0000
vt 0.0000 0.0000
vt 0.0000 0.0000
vt 0.0000 0.0000
vt 0.0000 0.0000
vt 0.0000 0.0000
vt 0.0000 0.0000
vt 0.0000 0.0000
vt 0.0000 0.0000
vt 0.0000 0.0000
vt 0.0000 0.0000
vt 0.0000 0.0000
vt 0.0000 0.0000
vt 0.0000 0.0000
vt 0.0000 0.0000
vt 0.0000 0.0000
vt 0.0000 0.0000
vt 0.0000 0.0000
vt 0.0000 0.0000
vt 0.0000 0.0000
vt 0.0000 0.0000
vt 0.0000 0.0000
vt 0.0000 0.0000
vt 0.0000 0.0000
vt 0.0000 0.0000
vt 0.0000 0.0000
vt 0.0000 0.0000
vt 0.0000 0.0000
vt 0.0000 0.0000
vt 0.0000 0.0000
vt 0.0000 0.0000
vt 0.0000 0.0000
vt 0.0000 0.0000
vt 0.0000 0.0000
vt 0.0000 0.0000
vt 0.0000 0.0000
vt 0.0000 0.0000
vt 0.0000 0.0000
vt 0.0000 0.0000
vt 0.0000 0.0000
vt 0.0000 0.0000
vt 0.0000 0.0000
vt 0.0000 0.0000
vt 0.0000 0.0000
vt 0.0000 0.0000
vt 0.0000 0.0000
vt 0.0000 0.0000
vt 0.0000 0.0000
vt 0.0000 0.0000
vt 0.0000 0.0000
vt 0.0000 0.0000
vt 0.0000 0.0000
vt 0.0000 0.0000
vt 0.0000 0.0000
vt 0.0000 0.0000
vt 0.0000 0.0000
vt 0.0000 0.0000
vt 0.0000 0.0000
vt 0.0000 0.0000
vt 0.0000 0.0000
vt 0.0000 0.0000
vt 0.0000 0.0000
vt 0.0000 0.0000
vt 0.0000 0.0000
vt 0.0000 0.0000
vt 0.0000 0.0000
vt 0.0000 0.0000
vt 0.0000 0.0000
vt 0.0000 0.0000
vt 0.0000 0.0000
vt 0.0000 0.0000
vt 0.0000 0.0000
vt 0.0000 0.0000
vt 0.0000 0.0000
vt 0.0000 0.0000
vt 0.0000 0.0000
vt 0.0000 0.0000
vt 0.0000 0.0000
vt 0.0000 0.0000
vt 0.0000 0.0000
vt 0.0000 0.0000
vt 0.0000 0.0000
vt 0.0000 0.0000
vt 0.0000 0.0000
vt 0.0000 0.0000
vt 0.0000 0.0000
vt 0.0000 0.0000
vt 0.0000 0.0000
vt 0.0000 0.0000
vt 0.0000 0.0000
vt 0.0000 0.0000
vt 0.0000 0.0000
vt 0.0000 0.0000
vt 0.0000 0.0000
vt 0.0000 0.0000
vt 0.0000 0.0000
vt 0.0000 0.0000
vt 0.0000 0.0000
vt 0.0000 0.0000
vt 0.0000 0.0000
vt 0.0000 0.0000
vt 0.0000 0.0000
vt 0.0000 0.0000
vt 0.0000 0.0000
vt 0.0000 0.0000
vt 0.0000 0.0000
vt 0.0000 0.0000
vt 0.0000 0.0000
vt 0.0000 0.0000
vt 0.0000 0.0000
vt 0.0000 0.0000
vt 0.0000 0.0000
vt 0.0000 0.0000
vt 0.0000 0.0000
vt 0.0000 0.0000
vt 0.0000 0.0000
vt 0.0000 0.0000
vt 0.0000 0.0000
vt 0.0000 0.0000
vt 0.0000 0.0000
vt 0.0000 0.0000
vt 0.0000 0.0000
vt 0.0000 0.0000
vt 0.0000 0.0000
vt 0.0000 0.0000
vt 0.0000 0.0000
vt 0.0000 0.0000
vt 0.0000 0.0000
vt 0.0000 0.0000
vt 0.0000 0.0000
vt 0.0000 0.0000
vt 0.0000 0.0000
vt 0.0000 0.0000
vt 0.0000 0.0000
vt 0.0000 0.0000
vt 0.0000 0.0000
vt 0.0000 0.0000
vt 0.0000 0.0000
vt 0.0000 0.0000
vt 0.0000 0.0000
vt 0.0000 0.0000
vt 0.0000 0.0000
vt 0.0000 0.0000
vt 0.0000 0.0000
vt 0.0000 0.0000
vt 0.0000 0.0000
vt 0.0000 0.0000
vt 0.0000 0.0000
vt 0.0000 0.0000
vt 0.0000 0.0000
vt 0.0000 0.0000
vt 0.0000 0.0000
vt 0.0000 0.0000
vt 0.0000 0.0000
vt 0.0000 0.0000
vt 0.0000 0.0000
vt 0.0000 0.0000
vt 0.0000 0.0000
vt 0.0000 0.0000
vt 0.0000 0.0000
vt 0.0000 0.0000
vt 0.0000 0.0000
vt 0.0000 0.0000
vt 0.0000 0.0000
vt 0.0000 0.0000
vt 0.0000 0.0000
vt 0.0000 0.0000
vt 0.0000 0.0000
vt 0.0000 0.0000
vt 0.0000 0.0000
vt 0.0000 0.0000
vt 0.0000 0.0000
vt 0.0000 0.0000
vt 0.0000 0.0000
vt 0.0000 0.0000
vt 0.0000 0.0000
vt 0.0000 0.0000
vt 0.0000 0.0000
vt 0.0000 0.0000
vt 0.0000 0.0000
vt 0.0000 0.0000
vt 0.0000 0.0000
vt 0.0000 0.0000
vt 0.0000 0.0000
vt 0.0000 0.0000
vt 0.0000 0.0000
vt 0.0000 0.0000
vt 0.0000 0.0000
vt 0.0000 0.0000
vt 0.0000 0.0000
vt 0.0000 0.0000
vt 0.0000 0.0000
vt 0.0000 0.0000
vt 0.0000 0.0000
vt 0.0000 0.0000
vt 0.0000 0.0000
vt 0.0000 0.0000
vt 0.0000 0.0000
vt 0.0000 0.0000
vt 0.0000 0.0000
vt 0.0000 0.0000
vt 0.0000 0.0000
vt 0.0000 0.0000
vt 0.0000 0.0000
vt 0.0000 0.0000
vt 0.0000 0.0000
vt 0.0000 0.0000
vt 0.0000 0.0000
vt 0.0000 0.0000
vt 0.0000 0.0000
vt 0.0000 0.0000
vt 0.0000 0.0000
vt 0.0000 0.0000
vt 0.0000 0.0000
vt 0.0000 0.0000
vt 0.0000 0.0000
vt 0.0000 0.0000
vt 0.0000 0.0000
vt 0.0000 0.0000
vt 0.0000 0.0000
vt 0.0000 0.0000
vt 0.0000 0.0000
vt 0.0000 0.0000
vt 0.0000 0.0000
vt 0.0000 0.0000
vt 0.0000 0.0000
vt 0.0000 0.0000
vt 0.0000 0.0000
vt 0.0000 0.0000
vt 0.0000 0.0000
vt 0.0000 0.0000
vt 0.0000 0.0000
vt 0.0000 0.0000
vt 0.0000 0.0000
vt 0.0000 0.0000
vt 0.0000 0.0000
vt 0.0000 0.0000
vt 0.0000 0.0000
vt 0.0000 0.0000
vt 0.0000 0.0000
vt 0.0000 0.0000
vt 0.0000 0.0000
vt 0.0000 0.0000
vt 0.0000 0.0000
vt 0.0000 0.0000
vt 0.0000 0.0000
vt 0.0000 0.0000
vt 0.0000 0.0000
vt 0.0000 0.0000
vt 0.0000 0.0000
vt 0.0000 0.0000
vt 0.0000 0.0000
vt 0.0000 0.0000
vt 0.0000 0.0000
vt 0.0000 0.0000
vt 0.0000 0.0000
vt 0.0000 0.0000
vt 0.0000 0.0000
vt 0.0000 0.0000
vt 0.0000 0.0000
vt 0.0000 0.0000
vt 0.0000 0.0000
vt 0.0000 0.0000
vt 0.0000 0.0000
vt 0.0000 0.0000
vt 0.0000 0.0000
vt 0.0000 0.0000
vt 0.0000 0.0000
vt 0.0000 0.0000
vt 0.0000 0.0000
vt 0.0000 0.0000
vt 0.0000 0.0000
vn -0.0998 -0.0140 0.9949
vn -0.1160 -0.0422 0.9924
vn -0.1161 0.0133 0.9931
vn -0.0989 0.0423 0.9942
vn 0.0000 -1.0000 -0.0000
vn 0.9795 -0.0244 0.1998
vn 0.9843 -0.0301 0.1735
vn 0.9197 0.0194 0.3921
vn 0.9195 0.0204 0.3925
vn 0.0000 1.0000 0.0000
vn 0.9799 -0.0078 0.1991
vn 0.9847 -0.0116 0.1736
vn -0.1664 0.2862 0.9436
vn -0.1537 0.4658 0.8714
vn -0.1112 -0.7682 0.6305
vn -0.1351 0.6286 0.7659
vn -0.1351 -0.6286 0.7659
vn -0.1112 0.7682 0.6305
vn -0.1537 -0.4658 0.8714
vn -0.1664 -0.2862 0.9436
vn -0.4791 -0.2862 0.8298
vn -0.4609 -0.0313 0.8869
vn -0.4977 -0.0965 0.8620
vn -0.4997 0.0322 0.8656
vn -0.4589 0.0989 0.8830
vn -0.4791 0.2862 0.8298
vn -0.4424 0.4658 0.7663
vn -0.3201 -0.7682 0.5544
vn -0.3889 0.6286 0.6735
vn -0.3889 -0.6286 0.6735
vn -0.3889 -0.6286 0.6736
vn -0.3201 0.7682 0.5544
vn -0.4424 -0.4658 0.7663
vn -0.6779 0.4658 0.5688
vn -0.4904 -0.7682 0.4115
vn -0.5958 0.6286 0.4999
vn -0.5958 -0.6286 0.4999
vn -0.4904 0.7682 0.4115
vn -0.6016 0.7682 0.2190
vn -0.6402 0.7682 0.0000
vn -0.6016 0.7682 -0.2190
vn -0.4904 0.7682 -0.4115
vn -0.4424 0.4658 -0.7663
vn -0.3201 -0.7682 -0.5544
vn -0.3889 0.6286 -0.6735
vn -0.3889 -0.6286 -0.6735
vn -0.3201 0.7682 -0.5544
vn -0.4424 -0.4658 -0.7663
vn -0.1351 0.6286 -0.7659
vn -0.1351 -0.6286 -0.7659
vn -0.1112 0.7682 -0.6305
vn -0.1537 -0.4658 -0.8714
vn -0.1664 -0.2862 -0.9436
vn -0.1728 -0.0965 -0.9802
vn -0.1728 0.0965 -0.9802
vn -0.1664 0.2862 -0.9436
vn -0.1537 0.4658 -0.8714
vn -0.1112 -0.7682 -0.6305
vn 0.1728 0.0965 -0.9802
vn 0.1664 0.2862 -0.9436
vn 0.1537 0.4658 -0.8714
vn 0.1112 -0.7682 -0.6305
vn 0.1351 0.6286 -0.7659
vn 0.1351 -0.6286 -0.7659
vn 0.1112 0.7682 -0.6305
vn 0.1537 -0.4658 -0.8714
vn 0.1664 -0.2862 -0.9436
vn 0.1728 -0.0965 -0.9802
vn 0.3201 0.7682 -0.5544
vn 0.4424 -0.4658 -0.7663
vn 0.4791 -0.2862 -0.8298
vn 0.4977 -0.0965 -0.8620
vn 0.4977 0.0965 -0.8620
vn 0.4791 0.2862 -0.8298
vn 0.4424 0.4658 -0.7663
vn 0.3201 -0.7682 -0.5544
vn 0.3889 0.6286 -0.6735
vn 0.3889 -0.6286 -0.6735
vn 0.7340 0.2862 -0.6159
vn 0.6779 0.4658 -0.5688
vn 0.4904 -0.7682 -0.4115
vn 0.5958 0.6286 -0.4999
vn 0.5958 -0.6286 -0.4999
vn 0.4904 0.7682 -0.4115
vn 0.6779 -0.4658 -0.5688
vn 0.7340 -0.2862 -0.6159
vn 0.7625 -0.0965 -0.6398
vn 0.7625 0.0965 -0.6398
vn 0.8315 -0.4658 -0.3027
vn 0.9004 -0.2862 -0.3277
vn 0.9353 -0.0965 -0.3404
vn 0.9353 0.0965 -0.3404
vn 0.9004 0.2862 -0.3277
vn 0.8315 0.4658 -0.3027
vn 0.6016 -0.7682 -0.2190
vn 0.7308 0.6286 -0.2660
vn 0.7308 -0.6286 -0.2660
vn 0.6016 0.7682 -0.2190
vn 0.9582 0.2862 0.0000
vn 0.8849 0.4658 0.0000
vn 0.6402 -0.7682 -0.0000
vn 0.7777 0.6286 0.0000
vn 0.7777 -0.6286 0.0000
vn 0.6402 0.7682 0.0000
vn 0.8849 -0.4658 0.0000
vn 0.9582 -0.2862 0.0000
vn 0.9953 -0.0965 -0.0000
vn 0.9953 0.0965 0.0000
vn 0.9004 -0.2862 0.3277
vn 0.9353 -0.0965 0.3404
vn 0.9353 0.0965 0.3404
vn 0.9004 0.2862 0.3277
vn 0.8315 0.4658 0.3027
vn 0.6016 -0.7682 0.2190
vn 0.7308 0.6286 0.2660
vn 0.7308 -0.6286 0.2660
vn 0.6016 0.7682 0.2190
vn 0.8315 -0.4658 0.3027
vn 0.6779 0.4658 0.5688
vn 0.4904 -0.7682 0.4115
vn 0.5958 0.6286 0.4999
vn 0.5958 -0.6286 0.4999
vn 0.4904 0.7682 0.4115
vn 0.6779 -0.4658 0.5688
vn 0.7340 -0.2862 0.6159
vn 0.7625 -0.0965 0.6398
vn 0.7625 0.0965 0.6398
vn 0.7340 0.2862 0.6159
vn 0.4791 -0.2862 0.8298
vn 0.4977 -0.0965 0.8620
vn 0.4977 0.0965 0.8620
vn 0.4791 0.2862 0.8298
vn 0.4424 0.4658 0.7663
vn 0.3201 -0.7682 0.5544
vn 0.3889 0.6286 0.6735
vn 0.3889 -0.6286 0.6735
vn 0.3201 0.7682 0.5544
vn 0.4424 -0.4658 0.7663
vn 0.1537 0.4658 0.8714
vn 0.1112 -0.7682 0.6305
vn 0.1351 0.6286 0.7659
vn 0.1351 -0.6286 0.7659
vn 0.1112 0.7682 0.6305
vn 0.1537 -0.4658 0.8714
vn 0.1664 -0.2862 0.9436
vn 0.1728 -0.0965 0.9802
vn 0.1728 0.0965 0.9802
vn 0.1664 0.2862 0.9436
vn -0.4791 -0.2862 -0.8298
vn -0.6402 -0.7682 0.0000
vn -0.6016 -0.7682 -0.2190
vn -0.6016 -0.7682 0.2190
vn -0.4977 -0.0965 -0.8620
vn -0.6779 -0.4658 -0.5688
vn -0.6779 -0.4658 0.5688
vn -0.6779 0.4658 -0.5688
vn -0.4791 0.2862 -0.8298
vn -0.5958 -0.6286 -0.4999
vn -0.5958 0.6286 -0.4999
vn -0.4977 0.0965 -0.8620
vn -0.4904 -0.7682 -0.4115
vn -0.9959 0.0026 -0.0896
vn -0.9936 -0.0111 -0.1126
vn -0.9942 -0.0088 -0.1067
vn -0.9960 0.0033 -0.0896
vn -0.9942 0.0031 -0.1070
vn -0.9936 0.0016 -0.1126
usemtl Door.001
s off
f 12/1/1 9/2/1 10/3/1
f 10/3/2 11/4/2 12/1/2
f 16/5/3 13/6/3 14/7/3
f 14/7/4 15/8/4 16/5/4
f 20/9/5 17/10/5 18/11/5
f 18/11/5 19/12/5 20/9/5
s 1
f 4/13/6 1/14/7 2/15/8
f 2/15/8 3/16/9 4/13/6
f 8/17/10 5/18/10 6/19/10
f 6/19/10 7/20/10 8/17/10
f 3/16/9 2/15/8 21/21/11
f 21/21/11 22/22/12 3/16/9
usemtl Shield_Walls
s off
f 26/23/13 23/24/13 24/25/13
f 24/25/13 25/26/13 26/23/13
f 30/27/14 27/28/14 28/29/14
f 28/29/14 29/30/14 30/27/14
f 34/31/15 31/32/15 32/33/15
f 32/33/15 33/34/15 34/31/15
f 38/35/16 35/36/16 36/37/16
f 36/37/16 37/38/16 38/35/16
f 42/39/17 39/40/17 40/41/17
f 40/41/17 41/42/17 42/39/17
f 46/43/18 43/44/18 44/45/18
f 44/45/18 45/46/18 46/43/18
f 50/47/19 47/48/19 48/49/19
f 48/49/19 49/50/19 50/47/19
f 54/51/20 51/52/20 52/53/20
f 52/53/20 53/54/20 54/51/20
f 58/55/21 55/56/21 56/57/21
f 56/57/21 57/58/21 58/55/21
f 62/59/22 59/60/22 60/61/22
f 60/61/23 61/62/23 62/59/23
f 66/63/24 63/64/24 64/65/24
f 64/65/25 65/66/25 66/63/25
f 70/67/26 67/68/26 68/69/26
f 68/69/26 69/70/26 70/67/26
f 74/71/27 71/72/27 72/73/27
f 72/73/27 73/74/27 74/71/27
f 78/75/28 75/76/28 76/77/28
f 76/77/28 77/78/28 78/75/28
f 82/79/29 79/80/29 80/81/29
f 80/81/29 81/82/29 82/79/29
f 86/83/30 83/84/30 84/85/30
f 84/85/31 85/86/31 86/83/31
f 90/87/32 87/88/32 88/89/32
f 88/89/32 89/90/32 90/87/32
f 94/91/33 91/92/33 92/93/33
f 92/93/33 93/94/33 94/91/33
f 95/95/34 96/96/34 97/97/34
f 102/98/35 98/99/35 99/100/35
f 102/98/35 99/100/35 100/101/35
f 100/101/35 101/102/35 102/98/35
f 106/103/36 103/104/36 104/105/36
f 104/105/36 105/106/36 106/103/36
f 110/107/37 107/108/37 108/109/37
f 108/109/37 109/110/37 110/107/37
f 115/111/38 111/112/38 112/113/38
f 115/111/38 112/113/38 113/114/38
f 113/114/38 114/115/38 115/111/38
f 119/116/39 116/117/39 117/118/39
f 117/118/39 118/119/39 119/116/39
f 123/120/40 120/121/40 121/122/40
f 121/122/40 122/123/40 123/120/40
f 127/124/41 124/125/41 125/126/41
f 125/126/41 126/127/41 127/124/41
f 132/128/42 128/129/42 129/130/42
f 132/128/42 129/130/42 130/131/42
f 130/131/42 131/132/42 132/128/42
f 136/133/43 133/134/43 134/135/43
f 134/135/43 135/136/43 136/133/43
f 140/137/44 137/138/44 138/139/44
f 138/139/44 139/140/44 140/137/44
f 144/141/45 141/142/45 142/143/45
f 142/143/45 143/144/45 144/141/45
f 148/145/46 145/146/46 146/147/46
f 146/147/46 147/148/46 148/145/46
f 152/149/47 149/150/47 150/151/47
f 150/151/47 151/152/47 152/149/47
f 156/153/48 153/154/48 154/155/48
f 154/155/48 155/156/48 156/153/48
f 160/157/49 157/158/49 158/159/49
f 158/159/49 159/160/49 160/157/49
f 164/161/50 161/162/50 162/163/50
f 162/163/50 163/164/50 164/161/50
f 168/165/51 165/166/51 166/167/51
f 166/167/51 167/168/51 168/165/51
f 172/169/52 169/170/52 170/171/52
f 170/171/52 171/172/52 172/169/52
f 176/173/53 173/174/53 174/175/53
f 174/175/53 175/176/53 176/173/53
f 180/177/54 177/178/54 178/179/54
f 178/179/54 179/180/54 180/177/54
f 184/181/55 181/182/55 182/183/55
f 182/183/55 183/184/55 184/181/55
f 188/185/56 185/186/56 186/187/56
f 186/187/56 187/188/56 188/185/56
f 192/189/57 189/190/57 190/191/57
f 190/191/57 191/192/57 192/189/57
f 196/193/58 193/194/58 194/195/58
f 194/195/58 195/196/58 196/193/58
f 200/197/59 197/198/59 198/199/59
f 198/199/59 199/200/59 200/197/59
f 204/201/60 201/202/60 202/203/60
f 202/203/60 203/204/60 204/201/60
f 208/205/61 205/206/61 206/207/61
f 206/207/61 207/208/61 208/205/61
f 212/209/62 209/210/62 210/211/62
f 210/211/62 211/212/62 212/209/62
f 216/213/63 213/214/63 214/215/63
f 214/215/63 215/216/63 216/213/63
f 220/217/64 217/218/64 218/219/64
f 218/219/64 219/220/64 220/217/64
f 224/221/65 221/222/65 222/223/65
f 222/223/65 223/224/65 224/221/65
f 228/225/66 225/226/66 226/227/66
f 226/227/66 227/228/66 228/225/66
f 232/229/67 229/230/67 230/231/67
f 230/231/67 231/232/67 232/229/67
f 236/233/68 233/234/68 234/235/68
f 234/235/68 235/236/68 236/233/68
f 240/237/69 237/238/69 238/239/69
f 238/239/69 239/240/69 240/237/69
f 244/241/70 241/242/70 242/243/70
f 242/243/70 243/244/70 244/241/70
f 248/245/71 245/246/71 246/247/71
f 246/247/71 247/248/71 248/245/71
f 252/249/72 249/250/72 250/251/72
f 250/251/72 251/252/72 252/249/72
f 256/253/73 253/254/73 254/255/73
f 254/255/73 255/256/73 256/253/73
f 260/257/74 257/258/74 258/259/74
f 258/259/74 259/260/74 260/257/74
f 264/261/75 261/262/75 262/263/75
f 262/263/75 263/264/75 264/261/75
f 268/265/76 265/266/76 266/267/76
f 266/267/76 267/268/76 268/265/76
f 272/269/77 269/270/77 270/271/77
f 270/271/77 271/272/77 272/269/77
f 276/273/78 273/274/78 274/275/78
f 274/275/78 275/276/78 276/273/78
f 280/277/79 277/278/79 278/279/79
f 278/279/79 279/280/79 280/277/79
f 284/281/80 281/282/80 282/283/80
f 282/283/80 283/284/80 284/281/80
f 288/285/81 285/286/81 286/287/81
f 286/287/81 287/288/81 288/285/81
f 292/289/82 289/290/82 290/291/82
f 290/291/82 291/292/82 292/289/82
f 296/293/83 293/294/83 294/295/83
f 294/295/83 295/296/83 296/293/83
f 300/297/84 297/298/84 298/299/84
f 298/299/84 299/300/84 300/297/84
f 304/301/85 301/302/85 302/303/85
f 302/303/85 303/304/85 304/301/85
f 308/305/86 305/306/86 306/307/86
f 306/307/86 307/308/86 308/305/86
f 312/309/87 309/310/87 310/311/87
f 310/311/87 311/312/87 312/309/87
f 316/313/88 313/314/88 314/315/88
f 314/315/88 315/316/88 316/313/88
f 320/317/89 317/318/89 318/319/89
f 318/319/89 319/320/89 320/317/89
f 324/321/90 321/322/90 322/323/90
f 322/323/90 323/324/90 324/321/90
f 328/325/91 325/326/91 326/327/91
f 326/327/91 327/328/91 328/325/91
f 332/329/92 329/330/92 330/331/92
f 330/331/92 331/332/92 332/329/92
f 336/333/93 333/334/93 334/335/93
f 334/335/93 335/336/93 336/333/93
f 340/337/94 337/338/94 338/339/94
f 338/339/94 339/340/94 340/337/94
f 344/341/95 341/342/95 342/343/95
f 342/343/95 343/344/95 344/341/95
f 348/345/96 345/346/96 346/347/96
f 346/347/96 347/348/96 348/345/96
f 352/349/97 349/350/97 350/351/97
f 350/351/97 351/352/97 352/349/97
f 356/353/98 353/354/98 354/355/98
f 354/355/98 355/356/98 356/353/98
f 360/357/99 357/358/99 358/359/99
f 358/359/99 359/360/99 360/357/99
f 364/361/100 361/362/100 362/363/100
f 362/363/100 363/364/100 364/361/100
f 368/365/101 365/366/101 366/367/101
f 366/367/101 367/368/101 368/365/101
f 372/369/102 369/370/102 370/371/102
f 370/371/102 371/372/102 372/369/102
f 376/373/103 373/374/103 374/375/103
f 374/375/103 375/376/103 376/373/103
f 380/377/104 377/378/104 378/379/104
f 378/379/104 379/380/104 380/377/104
f 384/381/105 381/382/105 382/383/105
f 382/383/105 383/384/105 384/381/105
f 388/385/106 385/386/106 386/387/106
f 386/387/106 387/388/106 388/385/106
f 392/389/107 389/390/107 390/391/107
f 390/391/107 391/392/107 392/389/107
f 396/393/108 393/394/108 394/395/108
f 394/395/108 395/396/108 396/393/108
f 400/397/109 397/398/109 398/399/109
f 398/399/109 399/400/109 400/397/109
f 404/401/110 401/402/110 402/403/110
f 402/403/110 403/404/110 404/401/110
f 408/405/111 405/406/111 406/407/111
f 406/407/111 407/408/111 408/405/111
f 412/409/112 409/410/112 410/411/112
f 410/411/112 411/412/112 412/409/112
f 416/413/113 413/414/113 414/415/113
f 414/415/113 415/416/113 416/413/113
f 420/417/114 417/418/114 418/419/114
f 418/419/114 419/420/114 420/417/114
f 424/421/115 421/422/115 422/423/115
f 422/423/115 423/424/115 424/421/115
f 428/425/116 425/426/116 426/427/116
f 426/427/116 427/428/116 428/425/116
f 432/429/117 429/430/117 430/431/117
f 430/431/117 431/432/117 432/429/117
f 436/433/118 433/434/118 434/435/118
f 434/435/118 435/436/118 436/433/118
f 440/437/119 437/438/119 438/439/119
f 438/439/119 439/440/119 440/437/119
f 444/441/120 441/442/120 442/443/120
f 442/443/120 443/444/120 444/441/120
f 448/445/121 445/446/121 446/447/121
f 446/447/121 447/448/121 448/445/121
f 452/449/122 449/450/122 450/451/122
f 450/451/122 451/452/122 452/449/122
f 456/453/123 453/454/123 454/455/123
f 454/455/123 455/456/123 456/453/123
f 460/457/124 457/458/124 458/459/124
f 458/459/124 459/460/124 460/457/124
f 464/461/125 461/462/125 462/463/125
f 462/463/125 463/464/125 464/461/125
f 468/465/126 465/466/126 466/467/126
f 466/467/126 467/468/126 468/465/126
f 472/469/127 469/470/127 470/471/127
f 470/471/127 471/472/127 472/469/127
f 476/473/128 473/474/128 474/475/128
f 474/475/128 475/476/128 476/473/128
f 480/477/129 477/478/129 478/479/129
f 478/479/129 479/480/129 480/477/129
f 484/481/130 481/482/130 482/483/130
f 482/483/130 483/484/130 484/481/130
f 488/485/131 485/486/131 486/487/131
f 486/487/131 487/488/131 488/485/131
f 492/489/132 489/490/132 490/491/132
f 490/491/132 491/492/132 492/489/132
f 496/493/133 493/494/133 494/495/133
f 494/495/133 495/496/133 496/493/133
f 500/497/134 497/498/134 498/499/134
f 498/499/134 499/500/134 500/497/134
f 504/501/135 501/502/135 502/503/135
f 502/503/135 503/504/135 504/501/135
f 508/505/136 505/506/136 506/507/136
f 506/507/136 507/508/136 508/505/136
f 512/509/137 509/510/137 510/511/137
f 510/511/137 511/512/137 512/509/137
f 516/513/138 513/514/138 514/515/138
f 514/515/138 515/516/138 516/513/138
f 520/517/139 517/518/139 518/519/139
f 518/519/139 519/520/139 520/517/139
f 524/521/140 521/522/140 522/523/140
f 522/523/140 523/524/140 524/521/140
f 528/525/141 525/526/141 526/527/141
f 526/527/141 527/528/141 528/525/141
f 532/529/142 529/530/142 530/531/142
f 530/531/142 531/532/142 532/529/142
f 536/533/143 533/534/143 534/535/143
f 534/535/143 535/536/143 536/533/143
f 540/537/144 537/538/144 538/539/144
f 538/539/144 539/540/144 540/537/144
f 544/541/145 541/542/145 542/543/145
f 542/543/145 543/544/145 544/541/145
f 548/545/146 545/546/146 546/547/146
f 546/547/146 547/548/146 548/545/146
f 552/549/147 549/550/147 550/551/147
f 550/551/147 551/552/147 552/549/147
f 556/553/148 553/554/148 554/555/148
f 554/555/148 555/556/148 556/553/148
f 560/557/149 557/558/149 558/559/149
f 558/559/149 559/560/149 560/557/149
f 564/561/150 561/562/150 562/563/150
f 562/563/150 563/564/150 564/561/150
f 568/565/151 565/566/151 566/567/151
f 566/567/151 567/568/151 568/565/151
f 572/569/152 569/570/152 570/571/152
f 570/571/152 571/572/152 572/569/152
f 576/573/153 573/574/153 574/575/153
f 574/575/153 575/576/153 576/573/153
f 577/577/154 578/578/154 579/579/154
f 580/580/155 581/581/155 582/582/155
f 583/583/156 584/584/156 585/585/156
f 589/586/157 586/587/157 587/588/157
f 587/588/157 588/589/157 589/586/157
f 593/590/158 590/591/158 591/592/158
f 591/592/158 592/593/158 593/590/158
f 597/594/159 594/595/159 595/596/159
f 595/596/159 596/597/159 597/594/159
f 601/598/160 598/599/160 599/600/160
f 599/600/160 600/601/160 601/598/160
f 606/602/161 602/603/161 603/604/161
f 606/602/161 603/604/161 604/605/161
f 604/605/161 605/606/161 606/602/161
s 1
f 610/607/162 607/608/163 608/609/164
f 608/609/164 609/610/165 610/607/162
f 612/611/166 610/607/162 609/610/165
f 609/610/165 611/612/167 612/611/166
